(kicad_symbol_lib (version 20220914) (generator kicad_symbol_editor)
  (symbol "40PC015G" (in_bom yes) (on_board yes)
    (property "Reference" "U" (at -10.16 6.35 0)
      (effects (font (size 1.27 1.27)) (justify left))
    )
    (property "Value" "40PC015G" (at 6.35 6.35 0)
      (effects (font (size 1.27 1.27)))
    )
    (property "Footprint" "" (at 2.54 0 0)
      (effects (font (size 1.27 1.27)) hide)
    )
    (property "Datasheet" "http://www.honeywellscportal.com//index.php?ci_id=138832" (at 2.54 0 0)
      (effects (font (size 1.27 1.27)) hide)
    )
    (property "ki_keywords" "gage gauge pressure sensor" (at 0 0 0)
      (effects (font (size 1.27 1.27)) hide)
    )
    (property "ki_description" "Gauge pressure sensor, 0 to 15PSI, 5V supply, 0.2% accuracy, integrated signal conditioning, excellent media compatibility" (at 0 0 0)
      (effects (font (size 1.27 1.27)) hide)
    )
    (symbol "40PC015G_0_1"
      (circle (center -5.842 1.524) (radius 2.6162)
        (stroke (width 0.508) (type default))
        (fill (type none))
      )
      (polyline
        (pts
          (xy -7.112 0.254)
          (xy -4.572 2.794)
        )
        (stroke (width 0.254) (type default))
        (fill (type none))
      )
      (polyline
        (pts
          (xy -5.842 -1.27)
          (xy -5.842 -3.81)
        )
        (stroke (width 0.508) (type default))
        (fill (type none))
      )
      (polyline
        (pts
          (xy -4.572 2.794)
          (xy -4.826 1.778)
          (xy -5.588 2.54)
          (xy -4.572 2.794)
        )
        (stroke (width 0.254) (type default))
        (fill (type outline))
      )
      (rectangle (start 7.62 5.08) (end -10.16 -5.08)
        (stroke (width 0.254) (type default))
        (fill (type background))
      )
    )
    (symbol "40PC015G_1_1"
      (pin power_in line (at 0 7.62 270) (length 2.54)
        (name "Vcc" (effects (font (size 1.27 1.27))))
        (number "1" (effects (font (size 1.27 1.27))))
      )
      (pin power_in line (at 0 -7.62 90) (length 2.54)
        (name "GND" (effects (font (size 1.27 1.27))))
        (number "2" (effects (font (size 1.27 1.27))))
      )
      (pin output line (at 10.16 0 180) (length 2.54)
        (name "Vout" (effects (font (size 1.27 1.27))))
        (number "3" (effects (font (size 1.27 1.27))))
      )
      (pin no_connect line (at -7.62 -5.08 90) (length 2.54) hide
        (name "NC" (effects (font (size 1.27 1.27))))
        (number "4" (effects (font (size 1.27 1.27))))
      )
      (pin no_connect line (at -5.08 -5.08 90) (length 2.54) hide
        (name "NC" (effects (font (size 1.27 1.27))))
        (number "5" (effects (font (size 1.27 1.27))))
      )
      (pin no_connect line (at -2.54 -5.08 90) (length 2.54) hide
        (name "NC" (effects (font (size 1.27 1.27))))
        (number "6" (effects (font (size 1.27 1.27))))
      )
    )
  )
  (symbol "40PC100G" (extends "40PC015G")
    (property "Reference" "U" (at -10.16 6.35 0)
      (effects (font (size 1.27 1.27)) (justify left))
    )
    (property "Value" "40PC100G" (at 6.35 6.35 0)
      (effects (font (size 1.27 1.27)))
    )
    (property "Footprint" "" (at 2.54 0 0)
      (effects (font (size 1.27 1.27)) hide)
    )
    (property "Datasheet" "http://www.honeywellscportal.com//index.php?ci_id=138832" (at 2.54 0 0)
      (effects (font (size 1.27 1.27)) hide)
    )
    (property "ki_keywords" "gage gauge pressure sensor" (at 0 0 0)
      (effects (font (size 1.27 1.27)) hide)
    )
    (property "ki_description" "Gauge pressure sensor, 0 to 100PSI, 5V supply, 0.2% accuracy, integrated signal conditioning, excellent media compatibility" (at 0 0 0)
      (effects (font (size 1.27 1.27)) hide)
    )
  )
  (symbol "40PC150G" (extends "40PC015G")
    (property "Reference" "U" (at -10.16 6.35 0)
      (effects (font (size 1.27 1.27)) (justify left))
    )
    (property "Value" "40PC150G" (at 6.35 6.35 0)
      (effects (font (size 1.27 1.27)))
    )
    (property "Footprint" "" (at 2.54 0 0)
      (effects (font (size 1.27 1.27)) hide)
    )
    (property "Datasheet" "http://www.honeywellscportal.com//index.php?ci_id=138832" (at 2.54 0 0)
      (effects (font (size 1.27 1.27)) hide)
    )
    (property "ki_keywords" "gage gauge pressure sensor" (at 0 0 0)
      (effects (font (size 1.27 1.27)) hide)
    )
    (property "ki_description" "Gauge pressure sensor, 0 to 150PSI, 5V supply, 0.2% accuracy, integrated signal conditioning, excellent media compatibility" (at 0 0 0)
      (effects (font (size 1.27 1.27)) hide)
    )
  )
  (symbol "40PC250G" (extends "40PC015G")
    (property "Reference" "U" (at -10.16 6.35 0)
      (effects (font (size 1.27 1.27)) (justify left))
    )
    (property "Value" "40PC250G" (at 6.35 6.35 0)
      (effects (font (size 1.27 1.27)))
    )
    (property "Footprint" "" (at 2.54 0 0)
      (effects (font (size 1.27 1.27)) hide)
    )
    (property "Datasheet" "http://www.honeywellscportal.com//index.php?ci_id=138832" (at 2.54 0 0)
      (effects (font (size 1.27 1.27)) hide)
    )
    (property "ki_keywords" "gage gauge pressure sensor" (at 0 0 0)
      (effects (font (size 1.27 1.27)) hide)
    )
    (property "ki_description" "Gauge pressure sensor, 0 to 250PSI, 5V supply, 0.2% accuracy, integrated signal conditioning, excellent media compatibility" (at 0 0 0)
      (effects (font (size 1.27 1.27)) hide)
    )
  )
  (symbol "BMP280" (in_bom yes) (on_board yes)
    (property "Reference" "U" (at -7.62 10.16 0)
      (effects (font (size 1.27 1.27)) (justify left top))
    )
    (property "Value" "BMP280" (at 5.08 10.16 0)
      (effects (font (size 1.27 1.27)) (justify left top))
    )
    (property "Footprint" "Package_LGA:Bosch_LGA-8_2x2.5mm_P0.65mm_ClockwisePinNumbering" (at 0 -17.78 0)
      (effects (font (size 1.27 1.27)) hide)
    )
    (property "Datasheet" "https://ae-bst.resource.bosch.com/media/_tech/media/datasheets/BST-BMP280-DS001.pdf" (at 0 0 0)
      (effects (font (size 1.27 1.27)) hide)
    )
    (property "ki_keywords" "I2C, SPI, pressure, temperature, sensor" (at 0 0 0)
      (effects (font (size 1.27 1.27)) hide)
    )
    (property "ki_description" "Absolute Barometric Pressure Sensor, LGA-8" (at 0 0 0)
      (effects (font (size 1.27 1.27)) hide)
    )
    (property "ki_fp_filters" "Bosch*LGA*2x2.5mm*P0.65mm*" (at 0 0 0)
      (effects (font (size 1.27 1.27)) hide)
    )
    (symbol "BMP280_0_1"
      (rectangle (start -7.62 -5.08) (end 5.08 7.62)
        (stroke (width 0.254) (type default))
        (fill (type background))
      )
    )
    (symbol "BMP280_1_1"
      (pin power_in line (at 0 -7.62 90) (length 2.54)
        (name "GND" (effects (font (size 1.27 1.27))))
        (number "1" (effects (font (size 1.27 1.27))))
      )
      (pin input line (at -10.16 -2.54 0) (length 2.54)
        (name "CSB" (effects (font (size 1.27 1.27))))
        (number "2" (effects (font (size 1.27 1.27))))
      )
      (pin bidirectional line (at -10.16 2.54 0) (length 2.54)
        (name "SDI" (effects (font (size 1.27 1.27))))
        (number "3" (effects (font (size 1.27 1.27))))
      )
      (pin input line (at -10.16 5.08 0) (length 2.54)
        (name "SCK" (effects (font (size 1.27 1.27))))
        (number "4" (effects (font (size 1.27 1.27))))
      )
      (pin bidirectional line (at -10.16 0 0) (length 2.54)
        (name "SDO" (effects (font (size 1.27 1.27))))
        (number "5" (effects (font (size 1.27 1.27))))
      )
      (pin power_in line (at 0 10.16 270) (length 2.54)
        (name "VDDIO" (effects (font (size 1.27 1.27))))
        (number "6" (effects (font (size 1.27 1.27))))
      )
      (pin power_in line (at 2.54 -7.62 90) (length 2.54)
        (name "GND" (effects (font (size 1.27 1.27))))
        (number "7" (effects (font (size 1.27 1.27))))
      )
      (pin power_in line (at 2.54 10.16 270) (length 2.54)
        (name "VDD" (effects (font (size 1.27 1.27))))
        (number "8" (effects (font (size 1.27 1.27))))
      )
    )
  )
  (symbol "LPS22DF" (in_bom yes) (on_board yes)
    (property "Reference" "U" (at -11.43 1.27 0)
      (effects (font (size 1.27 1.27)) (justify right))
    )
    (property "Value" "LPS22DF" (at -11.176 -1.27 0)
      (effects (font (size 1.27 1.27)) (justify right))
    )
    (property "Footprint" "Package_LGA:ST_HLGA-10_2x2mm_P0.5mm_LayoutBorder3x2y" (at -1.27 -8.89 0)
      (effects (font (size 1.27 1.27)) (justify left) hide)
    )
    (property "Datasheet" "https://www.st.com/resource/en/datasheet/lps22df.pdf" (at -1.27 -11.43 0)
      (effects (font (size 1.27 1.27)) (justify left) hide)
    )
    (property "ki_keywords" "digital barometer" (at 0 0 0)
      (effects (font (size 1.27 1.27)) hide)
    )
    (property "ki_description" "MEMS absolute pressure sensor, 260-1260 hPa, 1-200Hz ODR, 24bit, I2C/I3C/SPI interface, 2x2mm ST_HLGA-10L" (at 0 0 0)
      (effects (font (size 1.27 1.27)) hide)
    )
    (property "ki_fp_filters" "ST?HLGA*2x2mm*P0.5mm*LayoutBorder3x2y*" (at 0 0 0)
      (effects (font (size 1.27 1.27)) hide)
    )
    (symbol "LPS22DF_0_1"
      (rectangle (start -10.16 10.16) (end 10.16 -7.62)
        (stroke (width 0.254) (type default))
        (fill (type background))
      )
      (circle (center -6.35 1.27) (radius 2.6162)
        (stroke (width 0.508) (type default))
        (fill (type none))
      )
      (polyline
        (pts
          (xy -7.62 0)
          (xy -5.08 2.54)
        )
        (stroke (width 0.254) (type default))
        (fill (type none))
      )
      (polyline
        (pts
          (xy -6.35 -1.524)
          (xy -6.35 -4.064)
        )
        (stroke (width 0.508) (type default))
        (fill (type none))
      )
      (polyline
        (pts
          (xy -5.08 2.54)
          (xy -5.334 1.524)
          (xy -6.096 2.286)
          (xy -5.08 2.54)
        )
        (stroke (width 0.254) (type default))
        (fill (type outline))
      )
    )
    (symbol "LPS22DF_1_1"
      (pin power_in line (at -2.54 12.7 270) (length 2.54)
        (name "Vdd_IO" (effects (font (size 1.27 1.27))))
        (number "1" (effects (font (size 1.27 1.27))))
      )
      (pin power_in line (at -5.08 12.7 270) (length 2.54)
        (name "VDD" (effects (font (size 1.27 1.27))))
        (number "10" (effects (font (size 1.27 1.27))))
      )
      (pin input clock (at 12.7 2.54 180) (length 2.54)
        (name "SCL" (effects (font (size 1.27 1.27))))
        (number "2" (effects (font (size 1.27 1.27))))
        (alternate "SPC" input clock)
      )
      (pin passive line (at -5.08 -10.16 90) (length 2.54) hide
        (name "GND" (effects (font (size 1.27 1.27))))
        (number "3" (effects (font (size 1.27 1.27))))
      )
      (pin bidirectional line (at 12.7 7.62 180) (length 2.54)
        (name "SDA" (effects (font (size 1.27 1.27))))
        (number "4" (effects (font (size 1.27 1.27))))
        (alternate "SDI" input line)
        (alternate "SDI/SDO" bidirectional line)
      )
      (pin input line (at 12.7 5.08 180) (length 2.54)
        (name "SA0" (effects (font (size 1.27 1.27))))
        (number "5" (effects (font (size 1.27 1.27))))
        (alternate "SDO" output line)
      )
      (pin input line (at 12.7 0 180) (length 2.54)
        (name "~{CS}" (effects (font (size 1.27 1.27))))
        (number "6" (effects (font (size 1.27 1.27))))
      )
      (pin output line (at 12.7 -5.08 180) (length 2.54)
        (name "INT_DRDY" (effects (font (size 1.27 1.27))))
        (number "7" (effects (font (size 1.27 1.27))))
      )
      (pin power_in line (at -2.54 -10.16 90) (length 2.54)
        (name "GND_IO" (effects (font (size 1.27 1.27))))
        (number "8" (effects (font (size 1.27 1.27))))
      )
      (pin power_in line (at -5.08 -10.16 90) (length 2.54)
        (name "GND" (effects (font (size 1.27 1.27))))
        (number "9" (effects (font (size 1.27 1.27))))
      )
    )
  )
  (symbol "LPS25HB" (in_bom yes) (on_board yes)
    (property "Reference" "U" (at -11.43 1.27 0)
      (effects (font (size 1.27 1.27)) (justify right))
    )
    (property "Value" "LPS25HB" (at -11.176 -1.27 0)
      (effects (font (size 1.27 1.27)) (justify right))
    )
    (property "Footprint" "Package_LGA:ST_HLGA-10_2.5x2.5mm_P0.6mm_LayoutBorder3x2y" (at 1.27 -11.43 0)
      (effects (font (size 1.27 1.27)) (justify left) hide)
    )
    (property "Datasheet" "https://www.st.com/resource/en/datasheet/lps25hb.pdf" (at 1.27 -13.97 0)
      (effects (font (size 1.27 1.27)) (justify left) hide)
    )
    (property "ki_keywords" "mems absolute baromeeter spi i2c pressure" (at 0 0 0)
      (effects (font (size 1.27 1.27)) hide)
    )
    (property "ki_description" "MEMS nano pressure sensor, 260-1260 hPa, absolute digital output baromeeter, 24 bit, SPI, I2C, 0.01 hPa noise rms, ST_HLGA-10L" (at 0 0 0)
      (effects (font (size 1.27 1.27)) hide)
    )
    (property "ki_fp_filters" "ST?HLGA*2.5x2.5mm*P0.6mm*LayoutBorder3x2y*" (at 0 0 0)
      (effects (font (size 1.27 1.27)) hide)
    )
    (symbol "LPS25HB_0_1"
      (rectangle (start -10.16 10.16) (end 10.16 -7.62)
        (stroke (width 0.254) (type default))
        (fill (type background))
      )
      (circle (center -6.35 1.27) (radius 2.6162)
        (stroke (width 0.508) (type default))
        (fill (type none))
      )
      (polyline
        (pts
          (xy -7.62 0)
          (xy -5.08 2.54)
        )
        (stroke (width 0.254) (type default))
        (fill (type none))
      )
      (polyline
        (pts
          (xy -6.35 -1.524)
          (xy -6.35 -4.064)
        )
        (stroke (width 0.508) (type default))
        (fill (type none))
      )
      (polyline
        (pts
          (xy -5.08 2.54)
          (xy -5.334 1.524)
          (xy -6.096 2.286)
          (xy -5.08 2.54)
        )
        (stroke (width 0.254) (type default))
        (fill (type outline))
      )
    )
    (symbol "LPS25HB_1_1"
      (pin power_in line (at -2.54 12.7 270) (length 2.54)
        (name "Vdd_IO" (effects (font (size 1.27 1.27))))
        (number "1" (effects (font (size 1.27 1.27))))
      )
      (pin power_in line (at -5.08 12.7 270) (length 2.54)
        (name "VDD" (effects (font (size 1.27 1.27))))
        (number "10" (effects (font (size 1.27 1.27))))
      )
      (pin input clock (at 12.7 2.54 180) (length 2.54)
        (name "SCL" (effects (font (size 1.27 1.27))))
        (number "2" (effects (font (size 1.27 1.27))))
        (alternate "SPC" input clock)
      )
      (pin passive line (at -2.54 -10.16 90) (length 2.54) hide
        (name "GND" (effects (font (size 1.27 1.27))))
        (number "3" (effects (font (size 1.27 1.27))))
      )
      (pin bidirectional line (at 12.7 7.62 180) (length 2.54)
        (name "SDA" (effects (font (size 1.27 1.27))))
        (number "4" (effects (font (size 1.27 1.27))))
        (alternate "SDI" input line)
        (alternate "SDI/SDO" bidirectional line)
      )
      (pin input line (at 12.7 5.08 180) (length 2.54)
        (name "SA0" (effects (font (size 1.27 1.27))))
        (number "5" (effects (font (size 1.27 1.27))))
        (alternate "SDO" output line)
      )
      (pin input line (at 12.7 0 180) (length 2.54)
        (name "~{CS}" (effects (font (size 1.27 1.27))))
        (number "6" (effects (font (size 1.27 1.27))))
      )
      (pin output line (at 12.7 -5.08 180) (length 2.54)
        (name "INT_DRDY" (effects (font (size 1.27 1.27))))
        (number "7" (effects (font (size 1.27 1.27))))
      )
      (pin power_in line (at -2.54 -10.16 90) (length 2.54)
        (name "GND" (effects (font (size 1.27 1.27))))
        (number "8" (effects (font (size 1.27 1.27))))
      )
      (pin passive line (at -2.54 -10.16 90) (length 2.54) hide
        (name "GND" (effects (font (size 1.27 1.27))))
        (number "9" (effects (font (size 1.27 1.27))))
      )
    )
  )
  (symbol "LPS22HB" (extends "LPS25HB")
    (property "Reference" "U" (at -11.43 1.27 0)
      (effects (font (size 1.27 1.27)) (justify right))
    )
    (property "Value" "LPS22HB" (at -11.43 -1.27 0)
      (effects (font (size 1.27 1.27)) (justify right))
    )
    (property "Footprint" "Package_LGA:ST_HLGA-10_2x2mm_P0.5mm_LayoutBorder3x2y" (at 1.27 -11.43 0)
      (effects (font (size 1.27 1.27)) (justify left) hide)
    )
    (property "Datasheet" "https://www.st.com/resource/en/datasheet/lps22hb.pdf" (at 1.27 -13.97 0)
      (effects (font (size 1.27 1.27)) (justify left) hide)
    )
    (property "ki_keywords" "mems absolute baromeeter spi i2c pressure" (at 0 0 0)
      (effects (font (size 1.27 1.27)) hide)
    )
    (property "ki_description" "MEMS nano pressure sensor, 260-1260 hPa, absolute digital output baromeeter, 24 bit, SPI, I2C, 0.0075 hPa noise rms, ST_HLGA-10L" (at 0 0 0)
      (effects (font (size 1.27 1.27)) hide)
    )
    (property "ki_fp_filters" "ST?HLGA*2x2mm*P0.5mm*LayoutBorder3x2y*" (at 0 0 0)
      (effects (font (size 1.27 1.27)) hide)
    )
  )
  (symbol "LPS22HH" (extends "LPS25HB")
    (property "Reference" "U" (at -11.43 1.27 0)
      (effects (font (size 1.27 1.27)) (justify right))
    )
    (property "Value" "LPS22HH" (at -11.43 -1.27 0)
      (effects (font (size 1.27 1.27)) (justify right))
    )
    (property "Footprint" "Package_LGA:ST_HLGA-10_2x2mm_P0.5mm_LayoutBorder3x2y" (at 1.27 -11.43 0)
      (effects (font (size 1.27 1.27)) (justify left) hide)
    )
    (property "Datasheet" "https://www.st.com/resource/en/datasheet/lps22hh.pdf" (at 1.27 -13.97 0)
      (effects (font (size 1.27 1.27)) (justify left) hide)
    )
    (property "ki_keywords" "mems absolute baromeeter spi i2c i3c pressure" (at 0 0 0)
      (effects (font (size 1.27 1.27)) hide)
    )
    (property "ki_description" "MEMS nano pressure sensor, 260-1260 hPa, absolute digital output baromeeter, 24 bit, SPI, I2C, I3C, 0.65 Pa noise rms, ST_HLGA-10L" (at 0 0 0)
      (effects (font (size 1.27 1.27)) hide)
    )
    (property "ki_fp_filters" "ST?HLGA*2x2mm*P0.5mm*LayoutBorder3x2y*" (at 0 0 0)
      (effects (font (size 1.27 1.27)) hide)
    )
  )
  (symbol "MPL115A1" (in_bom yes) (on_board yes)
    (property "Reference" "U" (at -6.35 11.43 0)
      (effects (font (size 1.27 1.27)))
    )
    (property "Value" "MPL115A1" (at 7.62 11.43 0)
      (effects (font (size 1.27 1.27)))
    )
    (property "Footprint" "Package_LGA:NXP_LGA-8_3x5mm_P1.25mm_H1.2mm" (at 25.4 -11.43 0)
      (effects (font (size 1.27 1.27)) hide)
    )
    (property "Datasheet" "https://www.nxp.com/docs/en/data-sheet/MPL115A1.pdf" (at 0 0 0)
      (effects (font (size 1.27 1.27)) hide)
    )
    (property "ki_keywords" "spi barometer thermometer mems" (at 0 0 0)
      (effects (font (size 1.27 1.27)) hide)
    )
    (property "ki_description" "SPI Digital Barometer" (at 0 0 0)
      (effects (font (size 1.27 1.27)) hide)
    )
    (property "ki_fp_filters" "NXP*LGA*3x5mm*P1.25mm*H1.2mm*" (at 0 0 0)
      (effects (font (size 1.27 1.27)) hide)
    )
    (symbol "MPL115A1_0_1"
      (rectangle (start 7.62 10.16) (end -7.62 -10.16)
        (stroke (width 0.254) (type default))
        (fill (type background))
      )
    )
    (symbol "MPL115A1_1_1"
      (pin power_in line (at 0 15.24 270) (length 5.08)
        (name "VDD" (effects (font (size 1.27 1.27))))
        (number "1" (effects (font (size 1.27 1.27))))
      )
      (pin passive line (at 12.7 0 180) (length 5.08)
        (name "CAP" (effects (font (size 1.27 1.27))))
        (number "2" (effects (font (size 1.27 1.27))))
      )
      (pin power_in line (at 0 -15.24 90) (length 5.08)
        (name "GND" (effects (font (size 1.27 1.27))))
        (number "3" (effects (font (size 1.27 1.27))))
      )
      (pin input line (at -12.7 -5.08 0) (length 5.08)
        (name "~{SHDN}" (effects (font (size 1.27 1.27))))
        (number "4" (effects (font (size 1.27 1.27))))
      )
      (pin input line (at -12.7 -2.54 0) (length 5.08)
        (name "~{CS}" (effects (font (size 1.27 1.27))))
        (number "5" (effects (font (size 1.27 1.27))))
      )
      (pin output line (at -12.7 0 0) (length 5.08)
        (name "DOUT" (effects (font (size 1.27 1.27))))
        (number "6" (effects (font (size 1.27 1.27))))
      )
      (pin input line (at -12.7 2.54 0) (length 5.08)
        (name "DIN" (effects (font (size 1.27 1.27))))
        (number "7" (effects (font (size 1.27 1.27))))
      )
      (pin input line (at -12.7 5.08 0) (length 5.08)
        (name "SCLK" (effects (font (size 1.27 1.27))))
        (number "8" (effects (font (size 1.27 1.27))))
      )
    )
  )
  (symbol "MPL3115A2" (in_bom yes) (on_board yes)
    (property "Reference" "U" (at -6.35 11.43 0)
      (effects (font (size 1.27 1.27)))
    )
    (property "Value" "MPL3115A2" (at 6.35 11.43 0)
      (effects (font (size 1.27 1.27)))
    )
    (property "Footprint" "Package_LGA:NXP_LGA-8_3x5mm_P1.25mm_H1.1mm" (at 25.4 -11.43 0)
      (effects (font (size 1.27 1.27)) hide)
    )
    (property "Datasheet" "https://www.nxp.com/docs/en/data-sheet/MPL3115A2.pdf" (at 0 0 0)
      (effects (font (size 1.27 1.27)) hide)
    )
    (property "ki_keywords" "pressure sensor altimetry" (at 0 0 0)
      (effects (font (size 1.27 1.27)) hide)
    )
    (property "ki_description" "I2C precision pressure sensor with altimetry, LGA-8" (at 0 0 0)
      (effects (font (size 1.27 1.27)) hide)
    )
    (property "ki_fp_filters" "NXP*LGA*3x5mm*P1.25mm*H1.1mm*" (at 0 0 0)
      (effects (font (size 1.27 1.27)) hide)
    )
    (symbol "MPL3115A2_0_1"
      (rectangle (start 7.62 10.16) (end -7.62 -10.16)
        (stroke (width 0.254) (type default))
        (fill (type background))
      )
    )
    (symbol "MPL3115A2_1_1"
      (pin power_in line (at -2.54 12.7 270) (length 2.54)
        (name "VDD" (effects (font (size 1.27 1.27))))
        (number "1" (effects (font (size 1.27 1.27))))
      )
      (pin passive line (at 10.16 -5.08 180) (length 2.54)
        (name "CAP" (effects (font (size 1.27 1.27))))
        (number "2" (effects (font (size 1.27 1.27))))
      )
      (pin power_in line (at 0 -12.7 90) (length 2.54)
        (name "GND" (effects (font (size 1.27 1.27))))
        (number "3" (effects (font (size 1.27 1.27))))
      )
      (pin power_in line (at 0 12.7 270) (length 2.54)
        (name "VDDIO" (effects (font (size 1.27 1.27))))
        (number "4" (effects (font (size 1.27 1.27))))
      )
      (pin open_collector line (at 10.16 0 180) (length 2.54)
        (name "INT2" (effects (font (size 1.27 1.27))))
        (number "5" (effects (font (size 1.27 1.27))))
      )
      (pin open_collector line (at 10.16 2.54 180) (length 2.54)
        (name "INT1" (effects (font (size 1.27 1.27))))
        (number "6" (effects (font (size 1.27 1.27))))
      )
      (pin bidirectional line (at -10.16 2.54 0) (length 2.54)
        (name "SDL" (effects (font (size 1.27 1.27))))
        (number "7" (effects (font (size 1.27 1.27))))
      )
      (pin input line (at -10.16 0 0) (length 2.54)
        (name "SCL" (effects (font (size 1.27 1.27))))
        (number "8" (effects (font (size 1.27 1.27))))
      )
    )
  )
  (symbol "MPXA6115A" (in_bom yes) (on_board yes)
    (property "Reference" "U" (at -10.16 6.35 0)
      (effects (font (size 1.27 1.27)) (justify left))
    )
    (property "Value" "MPXA6115A" (at 1.27 6.35 0)
      (effects (font (size 1.27 1.27)) (justify left))
    )
    (property "Footprint" "" (at -12.7 -8.89 0)
      (effects (font (size 1.27 1.27)) hide)
    )
    (property "Datasheet" "https://www.nxp.com/docs/en/data-sheet/MPXA6115A.pdf" (at 0 15.24 0)
      (effects (font (size 1.27 1.27)) hide)
    )
    (property "ki_keywords" "absolute pressure sensor" (at 0 0 0)
      (effects (font (size 1.27 1.27)) hide)
    )
    (property "ki_description" "Absolute pressure sensor, 15 to 115kPa, analog output, integrated signal conditioning, temperature compensated, SO package" (at 0 0 0)
      (effects (font (size 1.27 1.27)) hide)
    )
    (symbol "MPXA6115A_0_1"
      (circle (center -5.842 1.524) (radius 2.6162)
        (stroke (width 0.508) (type default))
        (fill (type none))
      )
      (polyline
        (pts
          (xy -7.112 0.254)
          (xy -4.572 2.794)
        )
        (stroke (width 0.254) (type default))
        (fill (type none))
      )
      (polyline
        (pts
          (xy -5.842 -1.27)
          (xy -5.842 -3.81)
        )
        (stroke (width 0.508) (type default))
        (fill (type none))
      )
      (polyline
        (pts
          (xy -4.572 2.794)
          (xy -4.826 1.778)
          (xy -5.588 2.54)
          (xy -4.572 2.794)
        )
        (stroke (width 0.254) (type default))
        (fill (type outline))
      )
      (rectangle (start 7.62 5.08) (end -10.16 -5.08)
        (stroke (width 0.254) (type default))
        (fill (type background))
      )
    )
    (symbol "MPXA6115A_1_1"
      (pin no_connect line (at 5.08 -5.08 90) (length 2.54) hide
        (name "NC" (effects (font (size 1.27 1.27))))
        (number "1" (effects (font (size 1.27 1.27))))
      )
      (pin power_in line (at 0 7.62 270) (length 2.54)
        (name "Vcc" (effects (font (size 1.27 1.27))))
        (number "2" (effects (font (size 1.27 1.27))))
      )
      (pin power_in line (at 0 -7.62 90) (length 2.54)
        (name "GND" (effects (font (size 1.27 1.27))))
        (number "3" (effects (font (size 1.27 1.27))))
      )
      (pin output line (at 10.16 0 180) (length 2.54)
        (name "Vout" (effects (font (size 1.27 1.27))))
        (number "4" (effects (font (size 1.27 1.27))))
      )
      (pin no_connect line (at -7.62 -5.08 90) (length 2.54) hide
        (name "NC" (effects (font (size 1.27 1.27))))
        (number "5" (effects (font (size 1.27 1.27))))
      )
      (pin no_connect line (at -5.08 -5.08 90) (length 2.54) hide
        (name "NC" (effects (font (size 1.27 1.27))))
        (number "6" (effects (font (size 1.27 1.27))))
      )
      (pin no_connect line (at -2.54 -5.08 90) (length 2.54) hide
        (name "NC" (effects (font (size 1.27 1.27))))
        (number "7" (effects (font (size 1.27 1.27))))
      )
      (pin no_connect line (at 2.54 -5.08 90) (length 2.54) hide
        (name "NC" (effects (font (size 1.27 1.27))))
        (number "8" (effects (font (size 1.27 1.27))))
      )
    )
  )
  (symbol "MPXAZ6115A" (extends "MPXA6115A")
    (property "Reference" "U" (at -10.16 6.35 0)
      (effects (font (size 1.27 1.27)) (justify left))
    )
    (property "Value" "MPXAZ6115A" (at 1.27 6.35 0)
      (effects (font (size 1.27 1.27)) (justify left))
    )
    (property "Footprint" "" (at -12.7 -8.89 0)
      (effects (font (size 1.27 1.27)) hide)
    )
    (property "Datasheet" "https://www.nxp.com/docs/en/data-sheet/MPXA6115A.pdf" (at 0 15.24 0)
      (effects (font (size 1.27 1.27)) hide)
    )
    (property "ki_keywords" "absolute pressure sensor" (at 0 0 0)
      (effects (font (size 1.27 1.27)) hide)
    )
    (property "ki_description" "Absolute pressure sensor, 15 to 115kPa, analog output, integrated signal conditioning, temperature compensated, media resistant gel, SO package" (at 0 0 0)
      (effects (font (size 1.27 1.27)) hide)
    )
  )
  (symbol "MPXH6115A" (extends "MPXA6115A")
    (property "Reference" "U" (at -10.16 6.35 0)
      (effects (font (size 1.27 1.27)) (justify left))
    )
    (property "Value" "MPXH6115A" (at 1.27 6.35 0)
      (effects (font (size 1.27 1.27)) (justify left))
    )
    (property "Footprint" "" (at -12.7 -8.89 0)
      (effects (font (size 1.27 1.27)) hide)
    )
    (property "Datasheet" "https://www.nxp.com/docs/en/data-sheet/MPXA6115A.pdf" (at 0 15.24 0)
      (effects (font (size 1.27 1.27)) hide)
    )
    (property "ki_keywords" "absolute pressure sensor" (at 0 0 0)
      (effects (font (size 1.27 1.27)) hide)
    )
    (property "ki_description" "Absolute pressure sensor, 15 to 115kPa, analog output, integrated signal conditioning, temperature compensated, SSO package" (at 0 0 0)
      (effects (font (size 1.27 1.27)) hide)
    )
  )
  (symbol "MPXHZ6115A" (extends "MPXA6115A")
    (property "Reference" "U" (at -10.16 6.35 0)
      (effects (font (size 1.27 1.27)) (justify left))
    )
    (property "Value" "MPXHZ6115A" (at 1.27 6.35 0)
      (effects (font (size 1.27 1.27)) (justify left))
    )
    (property "Footprint" "" (at -12.7 -8.89 0)
      (effects (font (size 1.27 1.27)) hide)
    )
    (property "Datasheet" "https://www.nxp.com/docs/en/data-sheet/MPXA6115A.pdf" (at 0 15.24 0)
      (effects (font (size 1.27 1.27)) hide)
    )
    (property "ki_keywords" "absolute pressure sensor" (at 0 0 0)
      (effects (font (size 1.27 1.27)) hide)
    )
    (property "ki_description" "Absolute pressure sensor, 15 to 115kPa, analog output, integrated signal conditioning, temperature compensated, media resistant gel, SSO package" (at 0 0 0)
      (effects (font (size 1.27 1.27)) hide)
    )
  )
  (symbol "MS5525DSO" (in_bom yes) (on_board yes)
    (property "Reference" "U" (at -10.16 11.43 0)
      (effects (font (size 1.27 1.27)))
    )
    (property "Value" "MS5525DSO" (at 8.89 11.43 0)
      (effects (font (size 1.27 1.27)))
    )
    (property "Footprint" "" (at 0 -13.97 0)
      (effects (font (size 1.27 1.27)) hide)
    )
    (property "Datasheet" "https://www.te.com/commerce/DocumentDelivery/DDEController?Action=srchrtrv&DocNm=MS5525DSO&DocType=DS&DocLang=English" (at 0 -16.51 0)
      (effects (font (size 1.27 1.27)) hide)
    )
    (property "ki_keywords" "24bit low-power I2C SPI" (at 0 0 0)
      (effects (font (size 1.27 1.27)) hide)
    )
    (property "ki_description" "Integrated Digital Pressure Sensor" (at 0 0 0)
      (effects (font (size 1.27 1.27)) hide)
    )
    (property "ki_fp_filters" "TE?MS5525DSO*DB* TE?MS5525DSO*SB* TE?MS5525DSO*ST* TE?MS5525DSO*DH* TE?MS5525DSO*FT* TE?MS5525DSO*FB*" (at 0 0 0)
      (effects (font (size 1.27 1.27)) hide)
    )
    (symbol "MS5525DSO_0_1"
      (rectangle (start -12.7 10.16) (end 12.7 -10.16)
        (stroke (width 0.254) (type default))
        (fill (type background))
      )
    )
    (symbol "MS5525DSO_1_1"
      (pin passive line (at 15.24 -5.08 180) (length 2.54) hide
        (name "SIN-" (effects (font (size 1.27 1.27))))
        (number "1" (effects (font (size 1.27 1.27))))
      )
      (pin input line (at -15.24 5.08 0) (length 2.54)
        (name "PS" (effects (font (size 1.27 1.27))))
        (number "10" (effects (font (size 1.27 1.27))))
      )
      (pin passive line (at 0 12.7 270) (length 2.54) hide
        (name "SUPPLY+" (effects (font (size 1.27 1.27))))
        (number "11" (effects (font (size 1.27 1.27))))
      )
      (pin passive line (at 15.24 5.08 180) (length 2.54) hide
        (name "SOUT+" (effects (font (size 1.27 1.27))))
        (number "12" (effects (font (size 1.27 1.27))))
      )
      (pin power_in line (at 0 12.7 270) (length 2.54)
        (name "SUPPLY+" (effects (font (size 1.27 1.27))))
        (number "13" (effects (font (size 1.27 1.27))))
      )
      (pin passive line (at 15.24 5.08 180) (length 2.54)
        (name "SOUT+" (effects (font (size 1.27 1.27))))
        (number "14" (effects (font (size 1.27 1.27))))
      )
      (pin passive line (at 15.24 0 180) (length 2.54) hide
        (name "SOUT-" (effects (font (size 1.27 1.27))))
        (number "2" (effects (font (size 1.27 1.27))))
      )
      (pin passive line (at 15.24 -5.08 180) (length 2.54)
        (name "SIN-" (effects (font (size 1.27 1.27))))
        (number "3" (effects (font (size 1.27 1.27))))
      )
      (pin passive line (at 15.24 0 180) (length 2.54)
        (name "SOUT-" (effects (font (size 1.27 1.27))))
        (number "4" (effects (font (size 1.27 1.27))))
      )
      (pin output line (at -15.24 2.54 0) (length 2.54)
        (name "SDO" (effects (font (size 1.27 1.27))))
        (number "5" (effects (font (size 1.27 1.27))))
      )
      (pin input line (at -15.24 0 0) (length 2.54)
        (name "SDI/SDA" (effects (font (size 1.27 1.27))))
        (number "6" (effects (font (size 1.27 1.27))))
      )
      (pin input line (at -15.24 -2.54 0) (length 2.54)
        (name "SCLK/SCL" (effects (font (size 1.27 1.27))))
        (number "7" (effects (font (size 1.27 1.27))))
      )
      (pin input line (at -15.24 -5.08 0) (length 2.54)
        (name "CSB" (effects (font (size 1.27 1.27))))
        (number "8" (effects (font (size 1.27 1.27))))
      )
      (pin power_in line (at 0 -12.7 90) (length 2.54)
        (name "SUPPLY-" (effects (font (size 1.27 1.27))))
        (number "9" (effects (font (size 1.27 1.27))))
      )
    )
  )
  (symbol "MS5607-02BA" (in_bom yes) (on_board yes)
    (property "Reference" "U" (at -6.35 8.89 0)
      (effects (font (size 1.27 1.27)))
    )
    (property "Value" "MS5607-02BA" (at 7.62 8.89 0)
      (effects (font (size 1.27 1.27)))
    )
    (property "Footprint" "Package_LGA:LGA-8_3x5mm_P1.25mm" (at 0 0 0)
      (effects (font (size 1.27 1.27)) hide)
    )
    (property "Datasheet" "https://www.te.com/commerce/DocumentDelivery/DDEController?Action=showdoc&DocId=Data+Sheet%7FMS5607-02BA03%7FB2%7Fpdf%7FEnglish%7FENG_DS_MS5607-02BA03_B2.pdf%7FCAT-BLPS0035" (at 0 0 0)
      (effects (font (size 1.27 1.27)) hide)
    )
    (property "ki_keywords" "pressure SPI I2C" (at 0 0 0)
      (effects (font (size 1.27 1.27)) hide)
    )
    (property "ki_description" "Barometric pressure sensor, 20cm resolution, 10 to 1200 mbar, I2C and SPI interface up to 20MHz, LGA-8" (at 0 0 0)
      (effects (font (size 1.27 1.27)) hide)
    )
    (property "ki_fp_filters" "LGA*3x5mm*P1.25mm*" (at 0 0 0)
      (effects (font (size 1.27 1.27)) hide)
    )
    (symbol "MS5607-02BA_0_1"
      (rectangle (start -7.62 7.62) (end 7.62 -7.62)
        (stroke (width 0.254) (type default))
        (fill (type background))
      )
    )
    (symbol "MS5607-02BA_1_1"
      (pin power_in line (at 0 10.16 270) (length 2.54)
        (name "VDD" (effects (font (size 1.27 1.27))))
        (number "1" (effects (font (size 1.27 1.27))))
      )
      (pin input line (at -10.16 5.08 0) (length 2.54)
        (name "PS" (effects (font (size 1.27 1.27))))
        (number "2" (effects (font (size 1.27 1.27))))
      )
      (pin power_in line (at 0 -10.16 90) (length 2.54)
        (name "GND" (effects (font (size 1.27 1.27))))
        (number "3" (effects (font (size 1.27 1.27))))
      )
      (pin input line (at -10.16 -5.08 0) (length 2.54)
        (name "CSB" (effects (font (size 1.27 1.27))))
        (number "4" (effects (font (size 1.27 1.27))))
      )
      (pin input line (at -10.16 -5.08 0) (length 2.54) hide
        (name "CSB" (effects (font (size 1.27 1.27))))
        (number "5" (effects (font (size 1.27 1.27))))
      )
      (pin output line (at -10.16 2.54 0) (length 2.54)
        (name "SDO" (effects (font (size 1.27 1.27))))
        (number "6" (effects (font (size 1.27 1.27))))
      )
      (pin bidirectional line (at -10.16 0 0) (length 2.54)
        (name "SDI/SDA" (effects (font (size 1.27 1.27))))
        (number "7" (effects (font (size 1.27 1.27))))
      )
      (pin input line (at -10.16 -2.54 0) (length 2.54)
        (name "SCLK" (effects (font (size 1.27 1.27))))
        (number "8" (effects (font (size 1.27 1.27))))
      )
    )
  )
  (symbol "MS5611-01BA" (extends "MS5607-02BA")
    (property "Reference" "U" (at -6.35 8.89 0)
      (effects (font (size 1.27 1.27)))
    )
    (property "Value" "MS5611-01BA" (at 7.62 8.89 0)
      (effects (font (size 1.27 1.27)))
    )
    (property "Footprint" "Package_LGA:LGA-8_3x5mm_P1.25mm" (at 0 0 0)
      (effects (font (size 1.27 1.27)) hide)
    )
    (property "Datasheet" "https://www.te.com/commerce/DocumentDelivery/DDEController?Action=srchrtrv&DocNm=MS5611-01BA03&DocType=Data+Sheet&DocLang=English" (at 0 0 0)
      (effects (font (size 1.27 1.27)) hide)
    )
    (property "ki_keywords" "pressure SPI I2C" (at 0 0 0)
      (effects (font (size 1.27 1.27)) hide)
    )
    (property "ki_description" "Barometric pressure sensor, 10cm resolution, 10 to 1200 mbar, I2C and SPI interface up to 20MHz, LGA-8" (at 0 0 0)
      (effects (font (size 1.27 1.27)) hide)
    )
    (property "ki_fp_filters" "LGA*3x5mm*P1.25mm*" (at 0 0 0)
      (effects (font (size 1.27 1.27)) hide)
    )
  )
  (symbol "MS5837-xxBA" (in_bom yes) (on_board yes)
    (property "Reference" "U" (at 1.27 11.43 0)
      (effects (font (size 1.27 1.27)) (justify left))
    )
    (property "Value" "MS5837-xxBA" (at 1.27 8.89 0)
      (effects (font (size 1.27 1.27)) (justify left))
    )
    (property "Footprint" "Sensor_Pressure:TE_MS5837-xxBA" (at 0 0 0)
      (effects (font (size 1.27 1.27)) hide)
    )
    (property "Datasheet" "https://www.te.com/commerce/DocumentDelivery/DDEController?Action=showdoc&DocId=Data+Sheet%7FMS5837-30BA%7FB1%7Fpdf%7FEnglish%7FENG_DS_MS5837-30BA_B1.pdf%7FCAT-BLPS0017" (at 0 -2.54 0)
      (effects (font (size 1.27 1.27)) hide)
    )
    (property "ki_keywords" "pressure sensor" (at 0 0 0)
      (effects (font (size 1.27 1.27)) hide)
    )
    (property "ki_description" "Ultra-small, gel-filled, pressure sensor with stainless steel cap" (at 0 0 0)
      (effects (font (size 1.27 1.27)) hide)
    )
    (property "ki_fp_filters" "TE_MS5837*BA*" (at 0 0 0)
      (effects (font (size 1.27 1.27)) hide)
    )
    (symbol "MS5837-xxBA_0_1"
      (rectangle (start -5.08 7.62) (end 5.08 -7.62)
        (stroke (width 0.254) (type default))
        (fill (type background))
      )
    )
    (symbol "MS5837-xxBA_1_1"
      (pin power_in line (at 0 -10.16 90) (length 2.54)
        (name "GND" (effects (font (size 1.27 1.27))))
        (number "1" (effects (font (size 1.27 1.27))))
      )
      (pin power_in line (at 0 10.16 270) (length 2.54)
        (name "VDD" (effects (font (size 1.27 1.27))))
        (number "2" (effects (font (size 1.27 1.27))))
      )
      (pin passive line (at 7.62 2.54 180) (length 2.54)
        (name "SCL" (effects (font (size 1.27 1.27))))
        (number "3" (effects (font (size 1.27 1.27))))
      )
      (pin bidirectional line (at 7.62 0 180) (length 2.54)
        (name "SDA" (effects (font (size 1.27 1.27))))
        (number "4" (effects (font (size 1.27 1.27))))
      )
    )
  )
  (symbol "XGZP6897D" (in_bom yes) (on_board yes)
    (property "Reference" "U" (at -5.08 8.89 0)
      (effects (font (size 1.27 1.27)) (justify left))
    )
    (property "Value" "XGZP6897D" (at 1.27 8.89 0)
      (effects (font (size 1.27 1.27)) (justify left))
    )
    (property "Footprint" "Sensor_Pressure:CFSensor_XGZP6897x" (at 0 0 0)
      (effects (font (size 1.27 1.27)) hide)
    )
    (property "Datasheet" "https://cfsensor.com/wp-content/uploads/2022/11/XGZP6897D-Pressure-Sensor-V2.7.pdf" (at 0 0 0)
      (effects (font (size 1.27 1.27)) hide)
    )
    (property "ki_keywords" "differential i2c" (at 0 0 0)
      (effects (font (size 1.27 1.27)) hide)
    )
    (property "ki_description" "i2c differential digital, 2.5Vdc-5.5Vdc" (at 0 0 0)
      (effects (font (size 1.27 1.27)) hide)
    )
    (property "ki_fp_filters" "*CFSensor?XGZP6897*" (at 0 0 0)
      (effects (font (size 1.27 1.27)) hide)
    )
    (symbol "XGZP6897D_0_1"
      (rectangle (start -5.08 7.62) (end 5.08 -7.62)
        (stroke (width 0.254) (type default))
        (fill (type background))
      )
    )
    (symbol "XGZP6897D_1_0"
      (pin no_connect line (at -5.08 2.54 0) (length 2.54) hide
        (name "NC" (effects (font (size 1.27 1.27))))
        (number "1" (effects (font (size 1.27 1.27))))
      )
      (pin no_connect line (at -5.08 0 0) (length 2.54) hide
        (name "NC" (effects (font (size 1.27 1.27))))
        (number "3" (effects (font (size 1.27 1.27))))
      )
      (pin no_connect line (at -5.08 -2.54 0) (length 2.54) hide
        (name "NC" (effects (font (size 1.27 1.27))))
        (number "4" (effects (font (size 1.27 1.27))))
      )
      (pin no_connect line (at -5.08 -5.08 0) (length 2.54) hide
        (name "NC" (effects (font (size 1.27 1.27))))
        (number "5" (effects (font (size 1.27 1.27))))
      )
    )
    (symbol "XGZP6897D_1_1"
      (pin power_in line (at 0 10.16 270) (length 2.54)
        (name "VDD" (effects (font (size 1.27 1.27))))
        (number "2" (effects (font (size 1.27 1.27))))
      )
      (pin bidirectional line (at 7.62 0 180) (length 2.54)
        (name "SDA" (effects (font (size 1.27 1.27))))
        (number "6" (effects (font (size 1.27 1.27))))
      )
      (pin passive line (at 7.62 2.54 180) (length 2.54)
        (name "SCL" (effects (font (size 1.27 1.27))))
        (number "7" (effects (font (size 1.27 1.27))))
      )
      (pin power_in line (at 0 -10.16 90) (length 2.54)
        (name "GND" (effects (font (size 1.27 1.27))))
        (number "8" (effects (font (size 1.27 1.27))))
      )
    )
  )
  (symbol "XGZP6899D" (in_bom yes) (on_board yes)
    (property "Reference" "U" (at -5.08 8.89 0)
      (effects (font (size 1.27 1.27)) (justify left))
    )
    (property "Value" "XGZP6899D" (at 1.27 8.89 0)
      (effects (font (size 1.27 1.27)) (justify left))
    )
    (property "Footprint" "Sensor_Pressure:CFSensor_XGZP6899x" (at 0 0 0)
      (effects (font (size 1.27 1.27)) hide)
    )
    (property "Datasheet" "https://cfsensor.com/wp-content/uploads/2022/11/XGZP6899D-Pressure-Sensor-V2.8.pdf" (at 0 0 0)
      (effects (font (size 1.27 1.27)) hide)
    )
    (property "ki_keywords" "differential i2c" (at 0 0 0)
      (effects (font (size 1.27 1.27)) hide)
    )
    (property "ki_description" "i2c differential digital, 2.5Vdc-5.5Vdc" (at 0 0 0)
      (effects (font (size 1.27 1.27)) hide)
    )
    (property "ki_fp_filters" "*CFSensor?XGZP6899*" (at 0 0 0)
      (effects (font (size 1.27 1.27)) hide)
    )
    (symbol "XGZP6899D_0_1"
      (rectangle (start -5.08 7.62) (end 5.08 -7.62)
        (stroke (width 0.254) (type default))
        (fill (type background))
      )
    )
    (symbol "XGZP6899D_1_0"
      (pin no_connect line (at -5.08 2.54 0) (length 2.54) hide
        (name "NC" (effects (font (size 1.27 1.27))))
        (number "1" (effects (font (size 1.27 1.27))))
      )
      (pin no_connect line (at -5.08 -5.08 0) (length 2.54) hide
        (name "NC" (effects (font (size 1.27 1.27))))
        (number "5" (effects (font (size 1.27 1.27))))
      )
      (pin no_connect line (at -5.08 0 0) (length 2.54) hide
        (name "NC" (effects (font (size 1.27 1.27))))
        (number "7" (effects (font (size 1.27 1.27))))
      )
      (pin no_connect line (at -5.08 -2.54 0) (length 2.54) hide
        (name "NC" (effects (font (size 1.27 1.27))))
        (number "8" (effects (font (size 1.27 1.27))))
      )
    )
    (symbol "XGZP6899D_1_1"
      (pin power_in line (at 0 -10.16 90) (length 2.54)
        (name "GND" (effects (font (size 1.27 1.27))))
        (number "2" (effects (font (size 1.27 1.27))))
      )
      (pin passive line (at 7.62 2.54 180) (length 2.54)
        (name "SCL" (effects (font (size 1.27 1.27))))
        (number "3" (effects (font (size 1.27 1.27))))
      )
      (pin bidirectional line (at 7.62 0 180) (length 2.54)
        (name "SDA" (effects (font (size 1.27 1.27))))
        (number "4" (effects (font (size 1.27 1.27))))
      )
      (pin power_in line (at 0 10.16 270) (length 2.54)
        (name "VDD" (effects (font (size 1.27 1.27))))
        (number "6" (effects (font (size 1.27 1.27))))
      )
    )
  )
)
